<svg width="17" height="17" viewBox="0 0 17 17" fill="none" xmlns="http://www.w3.org/2000/svg">
<path d="M1.44257 1.08477L15.7137 15.3559M15.7137 1.08477L1.44257 15.3559" stroke="#F551A2" stroke-width="2" stroke-linecap="round" stroke-linejoin="round"/>
</svg>
