<svg width="201" height="215" viewBox="0 0 201 215" fill="none" xmlns="http://www.w3.org/2000/svg">
<path fill-rule="evenodd" clip-rule="evenodd" d="M65.1831 1.97479C97.4835 -7.36365 126.153 23.4265 151.308 46.8499C175.24 69.1338 203.179 94.5177 199.832 127.351C196.624 158.827 162.666 172.493 136.798 189.21C114.686 203.5 91.9428 219.126 66.1623 213.738C38.5741 207.971 13.5253 188.6 3.56285 161.362C-5.85699 135.609 9.30232 110.418 19.1009 85.0727C31.1719 53.8495 33.795 11.0495 65.1831 1.97479Z" fill="#E5F5F5"/>
</svg>
